C_K;H_K;D_K;S_K;___;___;___
C_Q;H_Q;D_Q;S_Q;___;___;___
C_J;H_J;D_J;S_J;___;___;___
C10;H10;D10;S10;___;___;___
C_9;H_9;D_9;S_9;___;___;___
C_8;H_8;D_8;S_8;___;___;___
C_7;H_7;D_7;S_7;___;___;___
C_6;H_6;D_6;S_6;___;___;___
C_5;H_5;D_5;S_5;___;___;___
C_4;H_4;D_4;S_4;___;___;___
C_3;H_3;D_3;S_3;___;___;___
C_2;H_2;D_2;S_2;___;___;___
C_A;H_A;D_A;S_A;___;___;___
___;___;___;___;___;___;___
___;___;___;___;___;___;___
___;___;___;___;___;___;___
___;___;___;___;___;___;___
___;___;___;___;___;___;___
___;___;___;___;___;___;___
___;___;___;___;___;___;___